<svg width="24" height="24" viewBox="0 0 24 24" fill="none" xmlns="http://www.w3.org/2000/svg">
<path fill-rule="evenodd" clip-rule="evenodd" d="M12 24C18.6274 24 24 18.6274 24 12C24 5.37258 18.6274 0 12 0C5.37258 0 0 5.37258 0 12C0 18.6274 5.37258 24 12 24ZM3.94334 12C3.84136 7.8187 7.49416 3.84713 12 3.87535C16.4777 3.9034 20.093 7.52226 20.0907 12C20.0888 15.5643 17.5071 18.5269 14.9575 19.5467C14.1416 19.8731 13.8017 20.4646 13.8017 21.3484V23.6941C8.9745 22.6062 4.08982 18.0057 3.94334 12Z" fill="#01CAFE"/>
</svg>
